SDO_X1;SDO_Y1;G3E_FID;PLZ;ORT;ORTSTEIL;STRASSE;HAUS_NR;GRUPPE
455535,7;5503078,03;11155484;68647;Biblis;Nordheim;Ringstr.;20;Niederdruck 90 mbar (AN)
455545,46;5503067,77;11155483;68647;Biblis;Nordheim;Ringstr.;18;Niederdruck 90 mbar (AN)
455558,74;5503074,33;11155485;68647;Biblis;Nordheim;Ringstr.;13;Niederdruck 90 mbar (AN)
455572,83;5503059,81;87679049;68647;Biblis;Nordheim;Ringstr.;11;Niederdruck 90 mbar (AN)
455576,85;5503118,53;80462538;68647;Biblis;Nordheim;Siegfriedstr.;16;Niederdruck 90 mbar (AN)
455595,63;5503593,34;94865532;68647;Biblis;Nordheim;Schleegasse;33;Niederdruck 90 mbar (AN)
455606,71;5503568,64;95506604;68647;Biblis;Nordheim;Schleegasse;29;Niederdruck 90 mbar (AN)
455612,94;5503556,47;11074672;68647;Biblis;Nordheim;Schleegasse;22;Niederdruck 90 mbar (AN)
455621,44;5503560,32;87579407;68647;Biblis;Nordheim;Schleegasse;25;Niederdruck 90 mbar (AN)
455637,28;5503559,67;95536761;68647;Biblis;Nordheim;Schleegasse;23;Niederdruck 90 mbar (AN)
455638,32;5503550,87;11074674;68647;Biblis;Nordheim;Schleegasse;21;Niederdruck 90 mbar (AN)
455644,31;5502972,81;87510604;68647;Biblis;Nordheim;Ringstr.;4;Niederdruck 90 mbar (AN)
455646,02;5503546,77;11074676;68647;Biblis;Nordheim;Schleegasse;19;Niederdruck 90 mbar (AN)
455658,66;5502958,12;11155480;68647;Biblis;Nordheim;Ringstr.;2;Niederdruck 90 mbar (AN)
455665,95;5503550,98;11074675;68647;Biblis;Nordheim;Schleegasse;17;Niederdruck 90 mbar (AN)
455667,12;5503526,13;11074673;68647;Biblis;Nordheim;Schleegasse;14;Niederdruck 90 mbar (AN)
455685,07;5503049,66;80462341;68647;Biblis;Nordheim;Siegfriedstr.;3;Niederdruck 90 mbar (AN)
455710,18;5503006,28;95270612;68647;Biblis;Nordheim;Nibelungenstr.;7;Niederdruck 90 mbar (AN)
455726,76;5503321,32;11142690;68647;Biblis;Nordheim;Altrheinstr.;2;Niederdruck 90 mbar (AN)
455728,86;5503476;95620223;68647;Biblis;Nordheim;Schleegasse;6;Niederdruck 90 mbar (AN)
455732,51;5503367,49;11074677;68647;Biblis;Nordheim;Wormser Str.;30;Niederdruck 90 mbar (AN)
455740,31;5503394,28;11074682;68647;Biblis;Nordheim;Wormser Str.;21;Niederdruck 90 mbar (AN)
455742,64;5503549,63;11142708;68647;Biblis;Nordheim;Enggasse;1;Niederdruck 90 mbar (AN)
455742,93;5503264,68;87565673;68647;Biblis;Nordheim;Wormser Str.;29;Niederdruck 90 mbar (AN)
455747,13;5503254,12;11142688;68647;Biblis;Nordheim;Wormser Str.;31;Niederdruck 90 mbar (AN)
455748,07;5503389,05;11074683;68647;Biblis;Nordheim;Wormser Str.;26;Niederdruck 90 mbar (AN)
455754,09;5503416,55;11074678;68647;Biblis;Nordheim;Wormser Str.;15;Niederdruck 90 mbar (AN)
455757,05;5503402,02;87179352;68647;Biblis;Nordheim;Wormser Str.;26;Niederdruck 90 mbar (AN)
455757,39;5503453,43;87225597;68647;Biblis;Nordheim;Schleegasse;2a;Niederdruck 90 mbar (AN)
455758,19;5503263,5;11142689;68647;Biblis;Nordheim;Wormser Str.;31;Niederdruck 90 mbar (AN)
455759,38;5503260,98;11142687;68647;Biblis;Nordheim;Wormser Str.;31;Niederdruck 90 mbar (AN)
455759,86;5503556,46;11142709;68647;Biblis;Nordheim;Enggasse;2;Niederdruck 90 mbar (AN)
